{
    "fluentMethods": true,
    "relationships": [],
    "fields": [
        {
            "fieldName": "linkIframe",
            "fieldType": "String"
        },
        {
            "fieldName": "cateIframe",
            "fieldType": "CateIFrame",
            "fieldValues": "COVER,CUDIEU,INTRODUCE,FACEBOOK"
        },
        {
            "fieldName": "updateDate",
            "fieldType": "Instant"
        },
        {
            "fieldName": "updateBy",
            "fieldType": "String"
        }
    ],
    "changelogDate": "20181116042831",
    "entityTableName": "i_frame",
    "dto": "no",
    "pagination": "no",
    "service": "no",
    "jpaMetamodelFiltering": false
}