{
    "fluentMethods": true,
    "relationships": [
        {
            "relationshipName": "newsCategory",
            "otherEntityName": "newsCategory",
            "relationshipType": "many-to-one",
            "otherEntityField": "id"
        }
    ],
    "fields": [
        {
            "fieldName": "newsTitle",
            "fieldType": "String"
        },
        {
            "fieldName": "newsPath",
            "fieldType": "String"
        },
        {
            "fieldName": "linkBanner",
            "fieldType": "String"
        },
        {
            "fieldName": "content",
            "fieldType": "byte[]",
            "fieldTypeBlobContent": "text"
        },
        {
            "fieldName": "description",
            "fieldType": "String"
        },
        {
            "fieldName": "createdDate",
            "fieldType": "Instant"
        },
        {
            "fieldName": "createdBy",
            "fieldType": "Instant"
        }
    ],
    "changelogDate": "20181006113900",
    "entityTableName": "news",
    "dto": "mapstruct",
    "pagination": "infinite-scroll",
    "service": "serviceImpl",
    "jpaMetamodelFiltering": false
}